%YAML 1.1
%TAG !u! tag:unity3d.com,2011:
--- !u!74 &7400000
AnimationClip:
  m_ObjectHideFlags: 0
  m_CorrespondingSourceObject: {fileID: 0}
  m_PrefabInstance: {fileID: 0}
  m_PrefabAsset: {fileID: 0}
  m_Name: PreloaderAnimation
  serializedVersion: 6
  m_Legacy: 0
  m_Compressed: 0
  m_UseHighQualityCurve: 1
  m_RotationCurves: []
  m_CompressedRotationCurves: []
  m_EulerCurves: []
  m_PositionCurves: []
  m_ScaleCurves: []
  m_FloatCurves: []
  m_PPtrCurves:
  - curve:
    - time: 0
      value: {fileID: 3010437676457096739, guid: c03fe5a71d9399f44a7d01ec2fbe0031,
        type: 3}
    - time: 0.016666668
      value: {fileID: -4144079354877982761, guid: c03fe5a71d9399f44a7d01ec2fbe0031,
        type: 3}
    - time: 0.033333335
      value: {fileID: -6917839885849155693, guid: c03fe5a71d9399f44a7d01ec2fbe0031,
        type: 3}
    - time: 0.06666667
      value: {fileID: 5319881786392974549, guid: c03fe5a71d9399f44a7d01ec2fbe0031,
        type: 3}
    - time: 0.083333336
      value: {fileID: -2360842174704049565, guid: c03fe5a71d9399f44a7d01ec2fbe0031,
        type: 3}
    - time: 0.11666667
      value: {fileID: 7771580506530535002, guid: c03fe5a71d9399f44a7d01ec2fbe0031,
        type: 3}
    - time: 0.13333334
      value: {fileID: -7208022211044614730, guid: c03fe5a71d9399f44a7d01ec2fbe0031,
        type: 3}
    - time: 0.15
      value: {fileID: -7338330249435412194, guid: c03fe5a71d9399f44a7d01ec2fbe0031,
        type: 3}
    - time: 0.18333334
      value: {fileID: 5621292362351328830, guid: c03fe5a71d9399f44a7d01ec2fbe0031,
        type: 3}
    - time: 0.2
      value: {fileID: 6273925670080471795, guid: c03fe5a71d9399f44a7d01ec2fbe0031,
        type: 3}
    - time: 0.23333333
      value: {fileID: -4212049647704664166, guid: c03fe5a71d9399f44a7d01ec2fbe0031,
        type: 3}
    - time: 0.25
      value: {fileID: 5048169788264637565, guid: c03fe5a71d9399f44a7d01ec2fbe0031,
        type: 3}
    - time: 0.26666668
      value: {fileID: -196449880515343110, guid: c03fe5a71d9399f44a7d01ec2fbe0031,
        type: 3}
    - time: 0.3
      value: {fileID: -7514597672652809749, guid: c03fe5a71d9399f44a7d01ec2fbe0031,
        type: 3}
    - time: 0.31666666
      value: {fileID: -8195884376775593018, guid: c03fe5a71d9399f44a7d01ec2fbe0031,
        type: 3}
    - time: 0.35
      value: {fileID: -6572351289462361943, guid: c03fe5a71d9399f44a7d01ec2fbe0031,
        type: 3}
    - time: 0.36666667
      value: {fileID: 8298146408394828466, guid: c03fe5a71d9399f44a7d01ec2fbe0031,
        type: 3}
    - time: 0.4
      value: {fileID: -1024072821113308007, guid: c03fe5a71d9399f44a7d01ec2fbe0031,
        type: 3}
    - time: 0.41666666
      value: {fileID: 8446489165124992627, guid: c03fe5a71d9399f44a7d01ec2fbe0031,
        type: 3}
    - time: 0.43333334
      value: {fileID: -3229789853901995, guid: c03fe5a71d9399f44a7d01ec2fbe0031, type: 3}
    - time: 0.46666667
      value: {fileID: 862404094652305151, guid: c03fe5a71d9399f44a7d01ec2fbe0031,
        type: 3}
    - time: 0.48333332
      value: {fileID: 3118444448242378538, guid: c03fe5a71d9399f44a7d01ec2fbe0031,
        type: 3}
    - time: 0.51666665
      value: {fileID: 4001380034947032629, guid: c03fe5a71d9399f44a7d01ec2fbe0031,
        type: 3}
    - time: 0.53333336
      value: {fileID: -2515717625845548823, guid: c03fe5a71d9399f44a7d01ec2fbe0031,
        type: 3}
    - time: 0.55
      value: {fileID: -2662058709900874431, guid: c03fe5a71d9399f44a7d01ec2fbe0031,
        type: 3}
    - time: 0.5833333
      value: {fileID: -3658272364128698677, guid: c03fe5a71d9399f44a7d01ec2fbe0031,
        type: 3}
    - time: 0.6
      value: {fileID: 1928378228695335209, guid: c03fe5a71d9399f44a7d01ec2fbe0031,
        type: 3}
    - time: 0.6333333
      value: {fileID: 6051169734801608393, guid: c03fe5a71d9399f44a7d01ec2fbe0031,
        type: 3}
    - time: 0.65
      value: {fileID: -500606567122005850, guid: c03fe5a71d9399f44a7d01ec2fbe0031,
        type: 3}
    - time: 0.6666667
      value: {fileID: -8008615201533805048, guid: c03fe5a71d9399f44a7d01ec2fbe0031,
        type: 3}
    - time: 0.7
      value: {fileID: 5409064526781527586, guid: c03fe5a71d9399f44a7d01ec2fbe0031,
        type: 3}
    - time: 0.71666664
      value: {fileID: -3971093093389450493, guid: c03fe5a71d9399f44a7d01ec2fbe0031,
        type: 3}
    - time: 0.75
      value: {fileID: -44177930018317434, guid: c03fe5a71d9399f44a7d01ec2fbe0031,
        type: 3}
    - time: 0.76666665
      value: {fileID: -5694785838646363136, guid: c03fe5a71d9399f44a7d01ec2fbe0031,
        type: 3}
    - time: 0.78333336
      value: {fileID: -4633028146189425901, guid: c03fe5a71d9399f44a7d01ec2fbe0031,
        type: 3}
    - time: 0.81666666
      value: {fileID: 3670484178095124364, guid: c03fe5a71d9399f44a7d01ec2fbe0031,
        type: 3}
    - time: 0.8333333
      value: {fileID: -4466230641895834822, guid: c03fe5a71d9399f44a7d01ec2fbe0031,
        type: 3}
    - time: 0.8666667
      value: {fileID: -32257980500836556, guid: c03fe5a71d9399f44a7d01ec2fbe0031,
        type: 3}
    - time: 0.8833333
      value: {fileID: -6796025222327152697, guid: c03fe5a71d9399f44a7d01ec2fbe0031,
        type: 3}
    - time: 0.9
      value: {fileID: -4036137123227749223, guid: c03fe5a71d9399f44a7d01ec2fbe0031,
        type: 3}
    - time: 0.93333334
      value: {fileID: 1165280926729678413, guid: c03fe5a71d9399f44a7d01ec2fbe0031,
        type: 3}
    - time: 0.95
      value: {fileID: 5988651085862062892, guid: c03fe5a71d9399f44a7d01ec2fbe0031,
        type: 3}
    - time: 0.98333335
      value: {fileID: 9071594711891455874, guid: c03fe5a71d9399f44a7d01ec2fbe0031,
        type: 3}
    - time: 1
      value: {fileID: -3852525531817064526, guid: c03fe5a71d9399f44a7d01ec2fbe0031,
        type: 3}
    - time: 1.0333333
      value: {fileID: -4473676079923538870, guid: c03fe5a71d9399f44a7d01ec2fbe0031,
        type: 3}
    - time: 1.05
      value: {fileID: 2778612256382025051, guid: c03fe5a71d9399f44a7d01ec2fbe0031,
        type: 3}
    - time: 1.0666667
      value: {fileID: -3040260190027382419, guid: c03fe5a71d9399f44a7d01ec2fbe0031,
        type: 3}
    - time: 1.1
      value: {fileID: 5902010149980739222, guid: c03fe5a71d9399f44a7d01ec2fbe0031,
        type: 3}
    - time: 1.1166667
      value: {fileID: -6963894196495279761, guid: c03fe5a71d9399f44a7d01ec2fbe0031,
        type: 3}
    - time: 1.15
      value: {fileID: -45059023329129124, guid: c03fe5a71d9399f44a7d01ec2fbe0031,
        type: 3}
    - time: 1.1666666
      value: {fileID: -4762152444835695028, guid: c03fe5a71d9399f44a7d01ec2fbe0031,
        type: 3}
    - time: 1.1833333
      value: {fileID: -7820810526277364662, guid: c03fe5a71d9399f44a7d01ec2fbe0031,
        type: 3}
    - time: 1.2166667
      value: {fileID: -5560710289607826566, guid: c03fe5a71d9399f44a7d01ec2fbe0031,
        type: 3}
    - time: 1.2333333
      value: {fileID: 8493734702347975770, guid: c03fe5a71d9399f44a7d01ec2fbe0031,
        type: 3}
    - time: 1.2666667
      value: {fileID: -9069261363453460858, guid: c03fe5a71d9399f44a7d01ec2fbe0031,
        type: 3}
    - time: 1.2833333
      value: {fileID: -2602468557013951823, guid: c03fe5a71d9399f44a7d01ec2fbe0031,
        type: 3}
    attribute: m_Sprite
    path: PreloaderObj
    classID: 114
    script: {fileID: 11500000, guid: fe87c0e1cc204ed48ad3b37840f39efc, type: 3}
  m_SampleRate: 60
  m_WrapMode: 0
  m_Bounds:
    m_Center: {x: 0, y: 0, z: 0}
    m_Extent: {x: 0, y: 0, z: 0}
  m_ClipBindingConstant:
    genericBindings:
    - serializedVersion: 2
      path: 3399002475
      attribute: 2015549526
      script: {fileID: 11500000, guid: fe87c0e1cc204ed48ad3b37840f39efc, type: 3}
      typeID: 114
      customType: 0
      isPPtrCurve: 1
    pptrCurveMapping:
    - {fileID: 3010437676457096739, guid: c03fe5a71d9399f44a7d01ec2fbe0031, type: 3}
    - {fileID: -4144079354877982761, guid: c03fe5a71d9399f44a7d01ec2fbe0031, type: 3}
    - {fileID: -6917839885849155693, guid: c03fe5a71d9399f44a7d01ec2fbe0031, type: 3}
    - {fileID: 5319881786392974549, guid: c03fe5a71d9399f44a7d01ec2fbe0031, type: 3}
    - {fileID: -2360842174704049565, guid: c03fe5a71d9399f44a7d01ec2fbe0031, type: 3}
    - {fileID: 7771580506530535002, guid: c03fe5a71d9399f44a7d01ec2fbe0031, type: 3}
    - {fileID: -7208022211044614730, guid: c03fe5a71d9399f44a7d01ec2fbe0031, type: 3}
    - {fileID: -7338330249435412194, guid: c03fe5a71d9399f44a7d01ec2fbe0031, type: 3}
    - {fileID: 5621292362351328830, guid: c03fe5a71d9399f44a7d01ec2fbe0031, type: 3}
    - {fileID: 6273925670080471795, guid: c03fe5a71d9399f44a7d01ec2fbe0031, type: 3}
    - {fileID: -4212049647704664166, guid: c03fe5a71d9399f44a7d01ec2fbe0031, type: 3}
    - {fileID: 5048169788264637565, guid: c03fe5a71d9399f44a7d01ec2fbe0031, type: 3}
    - {fileID: -196449880515343110, guid: c03fe5a71d9399f44a7d01ec2fbe0031, type: 3}
    - {fileID: -7514597672652809749, guid: c03fe5a71d9399f44a7d01ec2fbe0031, type: 3}
    - {fileID: -8195884376775593018, guid: c03fe5a71d9399f44a7d01ec2fbe0031, type: 3}
    - {fileID: -6572351289462361943, guid: c03fe5a71d9399f44a7d01ec2fbe0031, type: 3}
    - {fileID: 8298146408394828466, guid: c03fe5a71d9399f44a7d01ec2fbe0031, type: 3}
    - {fileID: -1024072821113308007, guid: c03fe5a71d9399f44a7d01ec2fbe0031, type: 3}
    - {fileID: 8446489165124992627, guid: c03fe5a71d9399f44a7d01ec2fbe0031, type: 3}
    - {fileID: -3229789853901995, guid: c03fe5a71d9399f44a7d01ec2fbe0031, type: 3}
    - {fileID: 862404094652305151, guid: c03fe5a71d9399f44a7d01ec2fbe0031, type: 3}
    - {fileID: 3118444448242378538, guid: c03fe5a71d9399f44a7d01ec2fbe0031, type: 3}
    - {fileID: 4001380034947032629, guid: c03fe5a71d9399f44a7d01ec2fbe0031, type: 3}
    - {fileID: -2515717625845548823, guid: c03fe5a71d9399f44a7d01ec2fbe0031, type: 3}
    - {fileID: -2662058709900874431, guid: c03fe5a71d9399f44a7d01ec2fbe0031, type: 3}
    - {fileID: -3658272364128698677, guid: c03fe5a71d9399f44a7d01ec2fbe0031, type: 3}
    - {fileID: 1928378228695335209, guid: c03fe5a71d9399f44a7d01ec2fbe0031, type: 3}
    - {fileID: 6051169734801608393, guid: c03fe5a71d9399f44a7d01ec2fbe0031, type: 3}
    - {fileID: -500606567122005850, guid: c03fe5a71d9399f44a7d01ec2fbe0031, type: 3}
    - {fileID: -8008615201533805048, guid: c03fe5a71d9399f44a7d01ec2fbe0031, type: 3}
    - {fileID: 5409064526781527586, guid: c03fe5a71d9399f44a7d01ec2fbe0031, type: 3}
    - {fileID: -3971093093389450493, guid: c03fe5a71d9399f44a7d01ec2fbe0031, type: 3}
    - {fileID: -44177930018317434, guid: c03fe5a71d9399f44a7d01ec2fbe0031, type: 3}
    - {fileID: -5694785838646363136, guid: c03fe5a71d9399f44a7d01ec2fbe0031, type: 3}
    - {fileID: -4633028146189425901, guid: c03fe5a71d9399f44a7d01ec2fbe0031, type: 3}
    - {fileID: 3670484178095124364, guid: c03fe5a71d9399f44a7d01ec2fbe0031, type: 3}
    - {fileID: -4466230641895834822, guid: c03fe5a71d9399f44a7d01ec2fbe0031, type: 3}
    - {fileID: -32257980500836556, guid: c03fe5a71d9399f44a7d01ec2fbe0031, type: 3}
    - {fileID: -6796025222327152697, guid: c03fe5a71d9399f44a7d01ec2fbe0031, type: 3}
    - {fileID: -4036137123227749223, guid: c03fe5a71d9399f44a7d01ec2fbe0031, type: 3}
    - {fileID: 1165280926729678413, guid: c03fe5a71d9399f44a7d01ec2fbe0031, type: 3}
    - {fileID: 5988651085862062892, guid: c03fe5a71d9399f44a7d01ec2fbe0031, type: 3}
    - {fileID: 9071594711891455874, guid: c03fe5a71d9399f44a7d01ec2fbe0031, type: 3}
    - {fileID: -3852525531817064526, guid: c03fe5a71d9399f44a7d01ec2fbe0031, type: 3}
    - {fileID: -4473676079923538870, guid: c03fe5a71d9399f44a7d01ec2fbe0031, type: 3}
    - {fileID: 2778612256382025051, guid: c03fe5a71d9399f44a7d01ec2fbe0031, type: 3}
    - {fileID: -3040260190027382419, guid: c03fe5a71d9399f44a7d01ec2fbe0031, type: 3}
    - {fileID: 5902010149980739222, guid: c03fe5a71d9399f44a7d01ec2fbe0031, type: 3}
    - {fileID: -6963894196495279761, guid: c03fe5a71d9399f44a7d01ec2fbe0031, type: 3}
    - {fileID: -45059023329129124, guid: c03fe5a71d9399f44a7d01ec2fbe0031, type: 3}
    - {fileID: -4762152444835695028, guid: c03fe5a71d9399f44a7d01ec2fbe0031, type: 3}
    - {fileID: -7820810526277364662, guid: c03fe5a71d9399f44a7d01ec2fbe0031, type: 3}
    - {fileID: -5560710289607826566, guid: c03fe5a71d9399f44a7d01ec2fbe0031, type: 3}
    - {fileID: 8493734702347975770, guid: c03fe5a71d9399f44a7d01ec2fbe0031, type: 3}
    - {fileID: -9069261363453460858, guid: c03fe5a71d9399f44a7d01ec2fbe0031, type: 3}
    - {fileID: -2602468557013951823, guid: c03fe5a71d9399f44a7d01ec2fbe0031, type: 3}
  m_AnimationClipSettings:
    serializedVersion: 2
    m_AdditiveReferencePoseClip: {fileID: 0}
    m_AdditiveReferencePoseTime: 0
    m_StartTime: 0
    m_StopTime: 1.3
    m_OrientationOffsetY: 0
    m_Level: 0
    m_CycleOffset: 0
    m_HasAdditiveReferencePose: 0
    m_LoopTime: 1
    m_LoopBlend: 0
    m_LoopBlendOrientation: 0
    m_LoopBlendPositionY: 0
    m_LoopBlendPositionXZ: 0
    m_KeepOriginalOrientation: 0
    m_KeepOriginalPositionY: 1
    m_KeepOriginalPositionXZ: 0
    m_HeightFromFeet: 0
    m_Mirror: 0
  m_EditorCurves: []
  m_EulerEditorCurves: []
  m_HasGenericRootTransform: 0
  m_HasMotionFloatCurves: 0
  m_Events: []
